# --> Including file '/afs/cern.ch/work/l/leggett/GaudiSrc/hive/git/DataObjID/Gaudi.2/GaudiExamples/options/ROOT_IO/ExtCollRead.py'
# <-- End of file '/afs/cern.ch/work/l/leggett/GaudiSrc/hive/git/DataObjID/Gaudi.2/GaudiExamples/options/ROOT_IO/ExtCollRead.py'
# applying configuration of GaudiPersistency
# /***** User GaudiPersistency/GaudiPersistency ******************************************************
# |-<no properties>
# \----- (End of User GaudiPersistency/GaudiPersistency) ---------------------------------------------
# Dumping all configurables and properties (different from default)
{'ApplicationMgr': {'EvtMax': -1,
                    'ExtSvc': ['TagCollectionSvc/EvtTupleSvc',
                               'FileRecordDataSvc/FileRecordDataSvc'],
                    'HistogramPersistency': 'NONE',
                    'SvcOptMapping': ['Gaudi::MultiFileCatalog/FileCatalog',
                                      'Gaudi::IODataManager/IODataManager',
                                      'Gaudi::RootCnvSvc/RootCnvSvc'],
                    'TopAlg': ['ReadAlg/ReadAlg']},
 'EventPersistencySvc': {'CnvServices': ['Gaudi::RootCnvSvc/RootCnvSvc']},
 'EventSelector': {'Input': ["COLLECTION='Fill/MyCOL1' DATAFILE='PFN:ROOT_IO.etags' SVC='Gaudi::RootCnvSvc' SEL='(Ntrack>9 && Ntrack<20 && Energy<180)' FUN='Gaudi::Examples::EvtExtCollectionSelector'",
                             "COLLECTION='Dir1/Dir2/Dir3/Collection' DATAFILE='PFN:ROOT_IO.tags' SVC='Gaudi::RootCnvSvc' SEL='(Ntrack>15)' FUN='Gaudi::Examples::EvtCollectionSelector'"],
                   'PrintFreq': 100},
 'FileCatalog': {'Catalogs': ['xmlcatalog_file:ROOTIO.xml']},
 'FileRecordPersistencySvc': {'CnvServices': ['Gaudi::RootCnvSvc/RootCnvSvc']}}
ApplicationMgr    SUCCESS
====================================================================================================================================
                                                   Welcome to ApplicationMgr (GaudiCoreSvc v3r5)
                                          running on p05614910w96644.cern.ch on Tue Oct 20 23:06:21 2015
====================================================================================================================================
ApplicationMgr       INFO Application Manager Configured successfully
EvtTupleSvc          INFO Added stream file:PFN:ROOT_IO.etags as EventSelector.DataStreamTool_1
Gaudi::RootData...   INFO Connect to existing Database file:PFN:ROOT_IO.etags as /EventSelector.DataStreamTool_1 for READ
EventSelector        INFO Stream:EventSelector.DataStreamTool_1 Def:COLLECTION='Fill/MyCOL1' DATAFILE='PFN:ROOT_IO.etags' SVC='Gaudi::RootCnvSvc' SEL='(Ntrack>9 && Ntrack<20 && Energy<180)' FUN='Gaudi::Examples::EvtExtCollectionSelector'
HistogramPersis...WARNING Histograms saving not required.
ApplicationMgr       INFO Application Manager Initialized successfully
ApplicationMgr       INFO Application Manager Started successfully
Gaudi::Examples::EvtExtCollectionSelector	 -> #tracks : 10
Gaudi::Examples::EvtExtCollectionSelector	 -> Momenta(Var): [0]=19.2008 [1]=19.1516 [2]=17.2588 [3]=16.57 [4]=18.6667
Gaudi::Examples::EvtExtCollectionSelector	 -> Track :  px=9.5523 py=12.6316 pz=10.8566
Gaudi::Examples::EvtExtCollectionSelector   SELECTED : False
Gaudi::Examples::EvtExtCollectionSelector	 -> #tracks : 10
Gaudi::Examples::EvtExtCollectionSelector	 -> Momenta(Var): [0]=18.3411 [1]=17.7319 [2]=17.1315 [3]=15.7644 [4]=18.5614
Gaudi::Examples::EvtExtCollectionSelector	 -> Track :  px=9.54872 py=12.0203 pz=10.0364
Gaudi::Examples::EvtExtCollectionSelector   SELECTED : False
Gaudi::Examples::EvtExtCollectionSelector	 -> #tracks : 10
Gaudi::Examples::EvtExtCollectionSelector	 -> Momenta(Var): [0]=17.0667 [1]=18.9315 [2]=16.8813 [3]=16.6494 [4]=16.4271
Gaudi::Examples::EvtExtCollectionSelector	 -> Track :  px=10.4154 py=9.30093 pz=9.81248
Gaudi::Examples::EvtExtCollectionSelector   SELECTED : False
Gaudi::Examples::EvtExtCollectionSelector	 -> #tracks : 10
Gaudi::Examples::EvtExtCollectionSelector	 -> Momenta(Var): [0]=16.4162 [1]=17.1642 [2]=17.9171 [3]=16.9433 [4]=16.6012
Gaudi::Examples::EvtExtCollectionSelector	 -> Track :  px=9.51818 py=8.95899 pz=9.93137
Gaudi::Examples::EvtExtCollectionSelector   SELECTED : False
Gaudi::Examples::EvtExtCollectionSelector	 -> #tracks : 10
Gaudi::Examples::EvtExtCollectionSelector	 -> Momenta(Var): [0]=15.7486 [1]=16.3605 [2]=16.5288 [3]=18.57 [4]=17.2386
Gaudi::Examples::EvtExtCollectionSelector	 -> Track :  px=9.27853 py=8.87215 pz=9.12209
Gaudi::Examples::EvtExtCollectionSelector   SELECTED : False
Gaudi::Examples::EvtExtCollectionSelector	 -> #tracks : 10
Gaudi::Examples::EvtExtCollectionSelector	 -> Momenta(Var): [0]=17.0099 [1]=14.2612 [2]=18.6538 [3]=18.3596 [4]=16.5182
Gaudi::Examples::EvtExtCollectionSelector	 -> Track :  px=8.47111 py=11.4375 pz=9.31466
Gaudi::Examples::EvtExtCollectionSelector   SELECTED : False
Gaudi::Examples::EvtExtCollectionSelector	 -> #tracks : 10
Gaudi::Examples::EvtExtCollectionSelector	 -> Momenta(Var): [0]=18.3957 [1]=17.8812 [2]=17.4812 [3]=16.5806 [4]=17.2316
Gaudi::Examples::EvtExtCollectionSelector	 -> Track :  px=12.15 py=9.06596 pz=10.4205
Gaudi::Examples::EvtExtCollectionSelector   SELECTED : False
Gaudi::Examples::EvtExtCollectionSelector	 -> #tracks : 10
Gaudi::Examples::EvtExtCollectionSelector	 -> Momenta(Var): [0]=19.2008 [1]=19.1516 [2]=17.2588 [3]=16.57 [4]=18.6667
Gaudi::Examples::EvtExtCollectionSelector	 -> Track :  px=9.5523 py=12.6316 pz=10.8566
Gaudi::Examples::EvtExtCollectionSelector   SELECTED : False
Gaudi::Examples::EvtExtCollectionSelector	 -> #tracks : 10
Gaudi::Examples::EvtExtCollectionSelector	 -> Momenta(Var): [0]=18.3411 [1]=17.7319 [2]=17.1315 [3]=15.7644 [4]=18.5614
Gaudi::Examples::EvtExtCollectionSelector	 -> Track :  px=9.54872 py=12.0203 pz=10.0364
Gaudi::Examples::EvtExtCollectionSelector   SELECTED : False
Gaudi::Examples::EvtExtCollectionSelector	 -> #tracks : 10
Gaudi::Examples::EvtExtCollectionSelector	 -> Momenta(Var): [0]=17.0667 [1]=18.9315 [2]=16.8813 [3]=16.6494 [4]=16.4271
Gaudi::Examples::EvtExtCollectionSelector	 -> Track :  px=10.4154 py=9.30093 pz=9.81248
Gaudi::Examples::EvtExtCollectionSelector   SELECTED : False
Gaudi::Examples::EvtExtCollectionSelector	 -> #tracks : 10
Gaudi::Examples::EvtExtCollectionSelector	 -> Momenta(Var): [0]=16.4162 [1]=17.1642 [2]=17.9171 [3]=16.9433 [4]=16.6012
Gaudi::Examples::EvtExtCollectionSelector	 -> Track :  px=9.51818 py=8.95899 pz=9.93137
Gaudi::Examples::EvtExtCollectionSelector   SELECTED : False
Gaudi::Examples::EvtExtCollectionSelector	 -> #tracks : 10
Gaudi::Examples::EvtExtCollectionSelector	 -> Momenta(Var): [0]=15.7486 [1]=16.3605 [2]=16.5288 [3]=18.57 [4]=17.2386
Gaudi::Examples::EvtExtCollectionSelector	 -> Track :  px=9.27853 py=8.87215 pz=9.12209
Gaudi::Examples::EvtExtCollectionSelector   SELECTED : False
Gaudi::Examples::EvtExtCollectionSelector	 -> #tracks : 10
Gaudi::Examples::EvtExtCollectionSelector	 -> Momenta(Var): [0]=17.0099 [1]=14.2612 [2]=18.6538 [3]=18.3596 [4]=16.5182
Gaudi::Examples::EvtExtCollectionSelector	 -> Track :  px=8.47111 py=11.4375 pz=9.31466
Gaudi::Examples::EvtExtCollectionSelector   SELECTED : False
Gaudi::Examples::EvtExtCollectionSelector	 -> #tracks : 10
Gaudi::Examples::EvtExtCollectionSelector	 -> Momenta(Var): [0]=18.3957 [1]=17.8812 [2]=17.4812 [3]=16.5806 [4]=17.2316
Gaudi::Examples::EvtExtCollectionSelector	 -> Track :  px=12.15 py=9.06596 pz=10.4205
Gaudi::Examples::EvtExtCollectionSelector   SELECTED : False
Gaudi::RootNTup...   INFO End of input Ntuple.
EvtTupleSvc          INFO Added stream file:PFN:ROOT_IO.tags as EventSelector.DataStreamTool_2
Gaudi::RootData...   INFO Connect to existing Database file:PFN:ROOT_IO.tags as /EventSelector.DataStreamTool_2 for READ
EventSelector        INFO Stream:EventSelector.DataStreamTool_2 Def:COLLECTION='Dir1/Dir2/Dir3/Collection' DATAFILE='PFN:ROOT_IO.tags' SVC='Gaudi::RootCnvSvc' SEL='(Ntrack>15)' FUN='Gaudi::Examples::EvtCollectionSelector'
Gaudi::Examples::EvtCollectionSelector	 -> #tracks : 93
Gaudi::Examples::EvtCollectionSelector	 -> Momenta(Var): [0]=16.6809 [1]=14.9037 [2]=16.7944 [3]=17.0709 [4]=17.3469
Gaudi::Examples::EvtCollectionSelector	 -> Momenta(Fix): [0]=16.6809 [1]=14.9037 [2]=16.7944 [3]=17.0709 [4]=17.3469
Gaudi::Examples::EvtCollectionSelector	 -> Track :  px=10.1578 py=9.51566 pz=9.19358
Gaudi::Examples::EvtCollectionSelector   SELECTED : True
EventSelector     SUCCESS Reading Event record 1. Record number within stream 2: 1
EventPersistenc...   INFO Added successfully Conversion service:RootCnvSvc
FileRecordPersi...   INFO Added successfully Conversion service:RootCnvSvc
ReadAlg              INFO ========= EVENT:2 RUN:999 TIME:1445375073.028799 0 (0) 1 (1) 2 (2)
ReadAlg           SUCCESS FileInfo record: F68C0456-5A77-E511-9E13-001E67ABF0AC/EvtCount=1000
ReadAlg           SUCCESS FileInfo record: F68C0456-5A77-E511-9E13-001E67ABF0AC/SumCount=123456
Gaudi::Examples::EvtCollectionSelector	 -> #tracks : 76
Gaudi::Examples::EvtCollectionSelector	 -> Momenta(Var): [0]=17.7422 [1]=16.7922 [2]=17.6961 [3]=16.0612 [4]=15.7365
Gaudi::Examples::EvtCollectionSelector	 -> Momenta(Fix): [0]=17.7422 [1]=16.7922 [2]=17.6961 [3]=16.0612 [4]=15.7365
Gaudi::Examples::EvtCollectionSelector	 -> Track :  px=10.4989 py=10.4342 pz=9.78193
Gaudi::Examples::EvtCollectionSelector   SELECTED : True
ReadAlg              INFO ========= EVENT:3 RUN:999 TIME:1445375073.037516 0 (0) 1 (1) 2 (2)
Gaudi::Examples::EvtCollectionSelector	 -> #tracks : 93
Gaudi::Examples::EvtCollectionSelector	 -> Momenta(Var): [0]=16.7554 [1]=16.91 [2]=17.424 [3]=17.0529 [4]=16.2021
Gaudi::Examples::EvtCollectionSelector	 -> Momenta(Fix): [0]=16.7554 [1]=16.91 [2]=17.424 [3]=17.0529 [4]=16.2021
Gaudi::Examples::EvtCollectionSelector	 -> Track :  px=8.95659 py=9.22111 pz=10.7468
Gaudi::Examples::EvtCollectionSelector   SELECTED : True
ReadAlg              INFO ========= EVENT:4 RUN:999 TIME:1445375073.041274 0 (0) 1 (1) 2 (2)
Gaudi::Examples::EvtCollectionSelector	 -> #tracks : 54
Gaudi::Examples::EvtCollectionSelector	 -> Momenta(Var): [0]=18.3973 [1]=15.7355 [2]=17.3919 [3]=17.6139 [4]=15.3032
Gaudi::Examples::EvtCollectionSelector	 -> Momenta(Fix): [0]=18.3973 [1]=15.7355 [2]=17.3919 [3]=17.6139 [4]=15.3032
Gaudi::Examples::EvtCollectionSelector	 -> Track :  px=10.7592 py=9.68162 pz=11.3563
Gaudi::Examples::EvtCollectionSelector   SELECTED : True
ReadAlg              INFO ========= EVENT:6 RUN:999 TIME:1445375073.048619 0 (0) 1 (1) 2 (2)
Gaudi::Examples::EvtCollectionSelector	 -> #tracks : 52
Gaudi::Examples::EvtCollectionSelector	 -> Momenta(Var): [0]=16.7278 [1]=19.0105 [2]=17.2653 [3]=17.9376 [4]=18.0045
Gaudi::Examples::EvtCollectionSelector	 -> Momenta(Fix): [0]=16.7278 [1]=19.0105 [2]=17.2653 [3]=17.9376 [4]=18.0045
Gaudi::Examples::EvtCollectionSelector	 -> Track :  px=9.79151 py=8.83918 pz=10.2866
Gaudi::Examples::EvtCollectionSelector   SELECTED : True
ReadAlg              INFO ========= EVENT:500 RUN:999 TIME:1445375084.717046 0 (0) 1 (1) 2 (2)
Gaudi::Examples::EvtCollectionSelector	 -> #tracks : 55
Gaudi::Examples::EvtCollectionSelector	 -> Momenta(Var): [0]=17.3344 [1]=16.8644 [2]=17.1626 [3]=19.4074 [4]=18.0094
Gaudi::Examples::EvtCollectionSelector	 -> Momenta(Fix): [0]=17.3344 [1]=16.8644 [2]=17.1626 [3]=19.4074 [4]=18.0094
Gaudi::Examples::EvtCollectionSelector	 -> Track :  px=10.7646 py=8.89134 pz=10.2737
Gaudi::Examples::EvtCollectionSelector   SELECTED : True
ReadAlg              INFO ========= EVENT:1000 RUN:999 TIME:1445375097.009053 0 (0) 1 (1) 2 (2)
Gaudi::Examples::EvtCollectionSelector	 -> #tracks : 93
Gaudi::Examples::EvtCollectionSelector	 -> Momenta(Var): [0]=16.6809 [1]=14.9037 [2]=16.7944 [3]=17.0709 [4]=17.3469
Gaudi::Examples::EvtCollectionSelector	 -> Momenta(Fix): [0]=16.6809 [1]=14.9037 [2]=16.7944 [3]=17.0709 [4]=17.3469
Gaudi::Examples::EvtCollectionSelector	 -> Track :  px=10.1578 py=9.51566 pz=9.19358
Gaudi::Examples::EvtCollectionSelector   SELECTED : True
IODataManager        INFO Disconnect from dataset ROOT_IO.etags [94EA728C-5A77-E511-AF30-001E67ABF0AC]
ReadAlg              INFO ========= EVENT:2 RUN:999 TIME:1445375073.028799 0 (0) 1 (1) 2 (2)
Gaudi::Examples::EvtCollectionSelector	 -> #tracks : 76
Gaudi::Examples::EvtCollectionSelector	 -> Momenta(Var): [0]=17.7422 [1]=16.7922 [2]=17.6961 [3]=16.0612 [4]=15.7365
Gaudi::Examples::EvtCollectionSelector	 -> Momenta(Fix): [0]=17.7422 [1]=16.7922 [2]=17.6961 [3]=16.0612 [4]=15.7365
Gaudi::Examples::EvtCollectionSelector	 -> Track :  px=10.4989 py=10.4342 pz=9.78193
Gaudi::Examples::EvtCollectionSelector   SELECTED : True
ReadAlg              INFO ========= EVENT:3 RUN:999 TIME:1445375073.037516 0 (0) 1 (1) 2 (2)
Gaudi::Examples::EvtCollectionSelector	 -> #tracks : 93
Gaudi::Examples::EvtCollectionSelector	 -> Momenta(Var): [0]=16.7554 [1]=16.91 [2]=17.424 [3]=17.0529 [4]=16.2021
Gaudi::Examples::EvtCollectionSelector	 -> Momenta(Fix): [0]=16.7554 [1]=16.91 [2]=17.424 [3]=17.0529 [4]=16.2021
Gaudi::Examples::EvtCollectionSelector	 -> Track :  px=8.95659 py=9.22111 pz=10.7468
Gaudi::Examples::EvtCollectionSelector   SELECTED : True
ReadAlg              INFO ========= EVENT:4 RUN:999 TIME:1445375073.041274 0 (0) 1 (1) 2 (2)
Gaudi::Examples::EvtCollectionSelector	 -> #tracks : 54
Gaudi::Examples::EvtCollectionSelector	 -> Momenta(Var): [0]=18.3973 [1]=15.7355 [2]=17.3919 [3]=17.6139 [4]=15.3032
Gaudi::Examples::EvtCollectionSelector	 -> Momenta(Fix): [0]=18.3973 [1]=15.7355 [2]=17.3919 [3]=17.6139 [4]=15.3032
Gaudi::Examples::EvtCollectionSelector	 -> Track :  px=10.7592 py=9.68162 pz=11.3563
Gaudi::Examples::EvtCollectionSelector   SELECTED : True
ReadAlg              INFO ========= EVENT:6 RUN:999 TIME:1445375073.048619 0 (0) 1 (1) 2 (2)
Gaudi::Examples::EvtCollectionSelector	 -> #tracks : 52
Gaudi::Examples::EvtCollectionSelector	 -> Momenta(Var): [0]=16.7278 [1]=19.0105 [2]=17.2653 [3]=17.9376 [4]=18.0045
Gaudi::Examples::EvtCollectionSelector	 -> Momenta(Fix): [0]=16.7278 [1]=19.0105 [2]=17.2653 [3]=17.9376 [4]=18.0045
Gaudi::Examples::EvtCollectionSelector	 -> Track :  px=9.79151 py=8.83918 pz=10.2866
Gaudi::Examples::EvtCollectionSelector   SELECTED : True
ReadAlg              INFO ========= EVENT:500 RUN:999 TIME:1445375084.717046 0 (0) 1 (1) 2 (2)
Gaudi::Examples::EvtCollectionSelector	 -> #tracks : 55
Gaudi::Examples::EvtCollectionSelector	 -> Momenta(Var): [0]=17.3344 [1]=16.8644 [2]=17.1626 [3]=19.4074 [4]=18.0094
Gaudi::Examples::EvtCollectionSelector	 -> Momenta(Fix): [0]=17.3344 [1]=16.8644 [2]=17.1626 [3]=19.4074 [4]=18.0094
Gaudi::Examples::EvtCollectionSelector	 -> Track :  px=10.7646 py=8.89134 pz=10.2737
Gaudi::Examples::EvtCollectionSelector   SELECTED : True
ReadAlg              INFO ========= EVENT:1000 RUN:999 TIME:1445375097.009053 0 (0) 1 (1) 2 (2)
Gaudi::RootNTup...   INFO End of input Ntuple.
EventLoopMgr         INFO No more events in event selection
EventLoopMgr         INFO ---> Loop Finished -  WSS 169.738 | total time (skipping 1st evt) 68179944 ns
ApplicationMgr       INFO Application Manager Stopped successfully
EventLoopMgr         INFO Histograms converted successfully according to request.
RootCnvSvc           INFO Disconnected data IO:02802356-5A77-E511-9E13-001E67ABF0AC [ROOTIO.mdst]
RootCnvSvc           INFO Disconnected data IO:F68C0456-5A77-E511-9E13-001E67ABF0AC [ROOTIO.dst]
ToolSvc              INFO Removing all tools created by ToolSvc
EvtTupleSvc.Eve...   INFO Disconnected data IO:94EA728C-5A77-E511-AF30-001E67ABF0AC [ROOT_IO.etags]
EvtTupleSvc.Eve...   INFO Disconnected data IO:724BB682-5A77-E511-860B-001E67ABF0AC [ROOT_IO.tags]
ApplicationMgr       INFO Application Manager Finalized successfully
ApplicationMgr       INFO Application Manager Terminated successfully
Number of MyTrack instances:2
